Label,prediction confidence,text
A,1.0,"initial management dyspepsia patients alarm symptoms weight loss recurrent vomiting dysphagia anemia evidence bleeding onset dyspepsia age years therapy based results early endoscopy better empiric acid suppression antisecretory therapy helicobacter pylori test treat strategy reducing symptoms improving quality life"
A,1.0,"seven <DASH> day triple therapy ppi ranitidine bismuth citrate plus clarithromycin amoxicillin metronidazole effective"
A,1.0,"addition sputum cytology frequent chest x <DASH> rays lung cancer mortality unchanged"
A,1.0,"hypoosmolar contrast media induce contrast nephropathy hyper osmolar media"
A,1.0,"cranberry juice daily times daily cranberry concentrate tablets at parts concentrated juice twice daily reduce recurrent symptomatic urinary tract infection uti women absolute risk reduction arr compared placebo number needed treat nnt"
A,1.0,"mupirocin cream effective oral cephalexin treatment secondarily infected minor wounds and better tolerability treatment choice prevention treatment staphylococcus aureus staphylococcus pyogenes infections"
A,1.0,"emerging resistance including methicillin resistant aureus mrsa prudent check clinical response hours"
A,1.0,"major contaminated wounds requiring parenteral antibiotics appear additionally benefit topical antibiotics"
A,1.0,"progesterone produces small significant decrease miscarriage pregnant women unexplained pregnancy losses"
A,1.0,"parent training effective treating oppositional defiant behaviors"
A,1.0,"special circumstances medical contraindications smoking cigarettes daily pregnancy breastfeeding smokers attempting quit offered nicotine replacement therapy"
A,1.0,"common first <DASH> line treatments dietary fiber evidence insufficient support approach geriatric population"
A,1.0,"adequate evidence screening neonates hemoglobinopathies congenital hypothyroidism phenylketonuria"
A,1.0,"coincident lowering triglycerides treating dyslipidemias such high ldl low hdl contribute decreasing coronary events"
A,1.0,"rhythmcontrol strategy provides survival quality <DASH> of <DASH> life benefit compared rate control causes adverse drug effects increased hospitalizations"
A,1.0,"bacterial vaginosis recurs providers confirm diagnosis"
A,1.0,"fluoxetine selective serotonin reuptake inhibitor ssri approved food drug administration fda treat depression children years age older favorable benefit <DASH> to <DASH> risk profile compared placebo trials lasting weeks"
A,1.0,"side effects failure rates scs documented considered recommending therapy patients"
A,1.0,"yes are"
A,1.0,"acupuncture relieves subjective symptoms asthma reduces medication mild moderate asthma"
A,1.0,"no history exam labs <DASH>  sufficiently accurate diagnose acute appendicitis"
A,1.0,"adjusted <DASH> dose warfarin international normalized ratio inr"
A,1.0,"remains efficacious antithrombotic regimen primary secondary prevention cardioembolic stroke high <DASH> risk patients nonvalvular atrial fibrillation nvaf"
A,1.0,"tamoxifen prevents breast cancer women older years younger women equally high risk breast disease reproductive family history current evidence long <DASH> term survival health benefits"
A,1.0,"reduction year incidence invasive noninvasive breast cancer increased risk endometrial cancer pulmonary emboli deep vein thrombosis cataracts"
A,1.0,"long <DASH> term benefits health effects tamoxifen primary prevention breast cancer remain unclear ongoing international breast cancer intervention study trial designed address question"
A,1.0,"clopidogrel shown significant reduction reoccurrence stroke studied patients previous tia"
A,1.0,"aspirin thienopyridine provide significant additional reduction secondary strokes"
A,1.0,"started onset symptoms during prodrome stage acyclovir times daily days decreases pain healing time loss crust valacyclovir twice daily day reduces lesion duration time healing may prevent lesion development"
A,1.0,"randomized controlled trials rcts addressed treatment options patients antibiotics"
A,1.0,"oral antifungals contraindicated pregnancy"
A,1.0,"shorter courses intravaginal therapy nonpregnant women day treatment may necessary pregnancy"
A,1.0,"sensitivity ecg detection mi directly related defined positive findings ecg mi"
A,1.0,"single specific ecg finding presence segment elevation mm"
A,1.0,"findings development pathologic waves depression valuable making diagnosis"
A,1.0,"women take oral contraceptives ocs increased risk developing hypertension returns baseline months oc cessation"
A,1.0,"nonsteroidal anti inflammatory drugs nsaids effective placebo pain relief patients acute low back pain"
A,1.0,"probably not"
A,1.0,"ambulation combined compression affected extremity appears safe medically stable patients deep venous thromboses dvt"
A,1.0,"children adolescents multicomponent strategies include school based interventions combined family community involvement increase physical activity"
A,1.0,"children recurrent episodes clinically diagnosed acute otitis media aom antibiotic prophylaxis significantly reduces recurrence effect large"
A,1.0,"risk stroke substantial week following tia"
A,1.0,"a meta <DASH> analysis of patients hospitalized for suspected acute appendicitis analyzed different diagnostic variables in studies"
A,1.0,"variables included wbc granulocyte count pmn proportion crp level and body temperature histopathology was the gold standard"
A,1.0,"in no circumstance did an isolated elevation of any factor result in a significant lr"
A,1.0,"in addition the absence of any variable failed to yield a lr <DASH>  lt low enough to exclude appendicitis"
A,1.0,"alternative antiplatelet therapy stroke prevention indicated patients experience transient ischemic attacks tias aspirin therapy"
A,1.0,"african americans reduced blood pressure responses monotherapy beta <DASH> blocker ace inhibitor arbs compared diuretics calcium channel blockers"
A,1.0,"hmg <DASH> coa reductase inhibitors statins shown decrease all <DASH> cause mortality individuals aged older known coronary heart disease chd elevated cholesterol levels"
A,1.0,"patients chronic obstructive pulmonary disease copd cardioselective beta <DASH> blockers beta blockers experience significant worsening short <DASH> term pulmonary status measured changes forced expiratory volume second fev changes patients self <DASH> reported symptoms"
A,1.0,"harmful effects exist clinically important substantial proven benefits beta <DASH> blockade patients concomitant cardiovascular disease"
A,1.0,"drugs nitazoxanide metronidazole mebendazole albendazole tinidazole higher clinical cure rate drugs"
A,1.0,"comparable side <DASH> effect profile requires dose"
A,1.0,"osteoporosis common prevalence increases age"
A,1.0,"evidence vitamin decreases mortality patients risk coronary disease"
A,1.0,"psychotherapy particularly cognitive behavioral therapy produces maintains reductions symptoms anxiety depression comparable reductions seen medication"
A,1.0,"fibrate niacin added statin monotherapy provide mixed lipid modifying effects combined dyslipidemia"
A,1.0,"gad best evidence utility primary care setting generalized anxiety disorder"
A,1.0,"methyldopa drug choice oral treatment medication extended follow <DASH> up study"
A,1.0,"however meta <DASH> analysis raised possibility increased fetal mortality"
A,1.0,"single effective modality treatment fibromyalgia syndrome objective comparison results different studies available"
A,1.0,"low <DASH> dose tricyclic antidepressants tcas improve sleep quality global well <DASH> being moderate beneficial effect tenderness stiffness"
A,1.0,"acute jones fractures recreationally active patients early intramedullary screw fixation results lower failure rates shorter times clinical union return sports non <DASH> weightbearing short leg casting"
A,1.0,"routine amniotomy slightly shortens second stage labor primiparous women only"
A,1.0,"best intervention education proper positioning attachment infant"
A,1.0,"ace inhibitors significantly reduce development overt nephropathy"
A,1.0,"propranolol timolol greater risks causing fatigue side effec"
A,1.0,"accurate diagnosis acute sinusitis children adults depends history clinical examination patient"
A,1.0,"clinical signs symptoms acute sinusitis difficult distinguish viral upper respiratory infection assessment remains best approach diagnosing acute sinusitis"
A,1.0,"statins hmg <DASH> coa reductase inhibitors cause myopathy risk low"
A,1.0,"tissue adhesives effective yield results comparable conventional suturing superficial linear low <DASH> tension lacerations"
A,1.0,"cosmetic outcome similar wound complications infection dehiscence may lower tissue adhesives"
A,1.0,"wound closure superficial lacerations tissue adhesives quicker painful compared conventional suturing"
A,1.0,"antibiotics necessary treat uncomplicated acute otitis media aom healthy child"
A,1.0,"terbinafine taken daily weeks best regimen toenail onychomycosis due better clinical mycologic cure rates tolerability cost effectiveness"
A,1.0,"major safety concerns prompting food drug administration fda black box label warning raised increased risk suicidality ideation behavior attempts adolescents receiving antidepressant therapy"
A,1.0,"studies indicate ssris venlafaxine increase absolute risk suicidality compared placebo"
A,1.0,"however suicides occurred study"
A,1.0,"detailed subanalysis ssri safe placebo venlafaxine demonstrated statistically significant increase risk suicidality"
A,1.0,"significant difference resolution symptoms steroids"
A,1.0,"beta <DASH> blockers <DASH> carvedilol metoprolol bisoprolol reduce mortality chronic heart failure caused left ventricular systolic dysfunction addition diuretics angiotensin converting enzyme ace inhibitors"
A,1.0,"adults history cardiovascular disease aspirin reduces risk nonfatal myocardial infarction mi"
A,1.0,"aspirin prophylaxis decrease all <DASH> cause mortality risk fatal coronary heart disease risk stroke"
A,1.0,"patients ischemic stroke coronary disease statins prevent recurrent ischemic stroke evidence conflicting benefit proportional initial cholesterol levels"
A,1.0,"second <DASH> line therapy dmards appears beneficial patients psoriatic arthritis"
A,1.0,"antidepressants lamotrigine effective"
A,1.0,"atypical antipsychotics lithium anticonvulsants may help"
A,1.0,"antidepressants including tricyclics selective serotonin reuptake inhibitors ssris useful adjuncts short <DASH> term treatment bipolar depression low rates inducing mania"
A,1.0,"angiotensin converting enzyme ace inhibitors significant difference patients diabetes whole"
A,1.0,"patients microalbuminuria included together ace inhibitors significantly reduce progression albumin excretion rate"
A,1.0,"average patient warfarin atrial fibrillation risk intracranial hemorrhage fall smaller benefit gained reducing risk stroke"
A,1.0,"statins reduce risk ischemic stroke hypertensive patients multiple cardiovascular risk factors nonfasting total cholesterol mg dl"
A,1.0,"nedocromil effective treatment exercise induced asthma"
A,1.0,"strategies colonoscopy fobt cost <DASH> effective"
A,1.0,"normal response moderately decreases likelihood secondary adrenal insufficiency"
A,1.0,"exercise effective chronic low back pain treatment medication plus return usual activity effective conventional physiotherapy"
A,1.0,"evidence consistent showing particular exercise format provides greater benefit exercise provides long <DASH> term increase function decrease pain disability"
A,1.0,"consider patients failed back surgery syndrome"
A,1.0,"patients gain pain relief spinal cord stimulation scs reoperation"
B,1.0,"clear"
B,1.0,"routine chest x <DASH> ray with sputum cytology low <DASH> dose computed tomography ct proven reduce mortality lung cancer screening low <DASH> dose ct screening identify lung cancer early stage high <DASH> risk patients"
B,1.0,"bone density evaluated initiating bisphosphonate drug therapy tested earlier years"
B,1.0,"clear little evidence supports refutes safety guaifenesin common expectorant pregnancy"
B,1.0,"small number observational case <DASH> control studies suggest weak association guaifenesin inguinal hernias neural tube defects newborns"
B,1.0,"however substantial methodological flaws absence statistical significance low rates prevalence cast shadow doubt data"
B,1.0,"decrease bone mineral density associated current dmpa studies lasting years less cessation may attenuate effect"
B,1.0,"metformin decreases menstrual irregularities"
B,1.0,"magnetic resonance imaging mri ultrasound confirm possible full <DASH> thickness tear"
B,1.0,"reticulocyte count bone marrow evaluation important rule hemolysis myelodysplastic changes may necessary patients isolated macrocytosis anemia"
B,1.0,"effective treatment tinea pedis oral terbinafine twice day weeks clinical cure rate"
B,1.0,"however oral terbinafine expensive approved indication"
B,1.0,"oral therapy may required patients hyperkerototic soles severe disease topical therapy failure chronic infection immunosuppression"
B,1.0,"screening serology testing indicated asymptomatic pregnant women"
B,1.0,"however long <DASH> term therapy occasional weaning attempts safe option"
B,1.0,"degree dehydration determined reliably percent body weight change"
B,1.0,"add <DASH> on therapy nedocromil theophylline cromolyn demonstrated modest benefit symptom control leukotriene receptor antagonists recommended based data older children"
B,1.0,"cisapride prokinetic agent available constipated adults cardiovascular risk restricts prescribing it"
B,1.0,"bariatric surgery complication rate mortality rate"
B,1.0,"monitor patient treat intrapartum chemoprophylaxis based identified risk factors rapid highly sensitive polymerase chain reaction pcr immediately available evaluate group streptococcus gbs"
B,1.0,"vitamin b mg d elemental calcium mg d safe inexpensive moderately effective"
B,1.0,"clonidine effective significant side effects"
B,1.0,"no <DASH> the complete blood count cbc adequate sensitivity specificity tell bacterial viral infections"
B,1.0,"self <DASH> measured blood pressures smbp precise accurate and thus reliably adjunct office blood pressure measurements selected clinical situations"
B,1.0,"evidence supports common advice avoid nuts seeds prevent diverticulitis"
B,1.0,"eating nuts corn popcorn increase risk fact nuts popcorn may protective effect"
B,1.0,"unclear screening afp afp us improves disease specific all <DASH> cause mortality"
B,1.0,"intrauterine devices iuds containing levonorgestrel effectively reduce bleeding may avoid surgical intervention"
B,1.0,"evidence exists compare benefits antidepressant medication cbt"
B,1.0,"risk factors patients highest risk stroke cardiovascular events tia include age years diabetes tia lasting longer minutes tia associated weakness speech impairment"
B,1.0,"grade ankle sprains ice works better heat speed recovery return play"
B,1.0,"screening patients chronic hepatitis infection hbsag hepatocellular carcinoma alpha fetoprotein afp afp plus ultrasound afp us detects hepatocellular carcinoma tumors earlier stages increases resection rates"
B,1.0,"studies demonstrated cessation breastfeeding jaundiced infants improves clinical outcomes studied term infants"
B,1.0,"temporarily disrupting supplementing breastfeeding jaundiced infants associated premature cessation breastfeeding"
B,1.0,"considering accuracy cost risk available tests appropriate stepwise approach begins complete history targeted physical examination palpation pulses obtain ankle brachial index confirm diagnosis"
B,1.0,"bariatric surgery including gastric bypass improves conditions comorbid obesity including diabetes abnormal lipid profiles low quality <DASH> of <DASH> life scores"
B,1.0,"decreases incidence hypertension years surgery effect sustained unclear"
B,1.0,"however modified cdc criteria fail identify women subclinical pid roughly equivalent risk pid sequelae acute symptomatic disease"
B,1.0,"check male partner varicoceles leading cause male secondary infertility"
B,1.0,"female partner hysterosalpingogram effective initial evaluation uterine cavity tubal patency"
B,1.0,"non <DASH> supine sleep position parental tobacco known risk factors sudden infant death syndrome sids"
B,1.0,"studies show co <DASH> sleeping bed sharing slightly increases risk sids greatest infants weeks old"
B,1.0,"combining nonsteroidal anti <DASH> inflammatory drugs nsaids acetaminophen short courses provides relief pain osteoarthritis increase side effects"
B,1.0,"influenza vaccination caregivers effectively prevented pneumonia nursing patients"
B,1.0,"potential morbidity high <DASH> dose loop diuretics volume contraction electrolyte disturbances neuroendocrine activation"
B,1.0,"high <DASH> dose loop diuretics systolic dysfunction associated increased mortality sudden death pump failure death"
B,1.0,"however diuretic resistance disease severity may explain findings"
B,1.0,"routine vaccination infants toddlers conjugate vaccine may cost <DASH> effective targeting adolescents conjugate meningococcal vaccine age group available us"
B,1.0,"topical acyclovir cream applied times day decreases pain duration hard crust"
B,1.0,"substituting bupropion nefazodone mirtazapine beneficial"
B,1.0,"isometheptene mucate dichloralphenazone acetaminophen effective low <DASH> dose oral sumatriptan"
B,1.0,"fluoroquinolone children associated tendonopathy"
B,1.0,"acetaminophen may prolong course shigella sonnei infection"
B,1.0,"medical therapy benzodiazepines vestibular suppression provides proven benefit bppv"
B,1.0,"tramadol associated withdrawal syndrome usually typical opioid withdrawal"
B,1.0,"insulin glargine lantus combination therapy produces fewer nocturnal hypoglycemic events neutral protamine hagedorn nph insulin producing equivalent hba c reduction"
B,1.0,"tramadol ultram generic acetaminophen ultracet carries risk substance abuse"
B,1.0,"honey may modestly decrease frequency severity cough compared treatment"
B,1.0,"pentoxifylline improves short <DASH> term survival patients admitted hospital severe alcoholic hepatitis"
B,1.0,"yes"
B,1.0,"children high risk atopy those family history allergy asthma eczema first degree relative breastfeeding giving hydrolyzed protein formula months reduces risk atopy year life compared introducing cows milk soy formula"
B,1.0,"random anogenital cultures sensitive diagnosing hsv infection"
B,1.0,"healthy term infants highest risk vitamin deficiency breastfeeding dark skin little sun exposure"
B,1.0,"nystatin oral suspension safe first <DASH> line therapy fluconazole effective approved food drug administration fda immunocompetent infants"
B,1.0,"physicians advice increase physical activity effective part self <DASH> care plan hypertension"
B,1.0,"single studies suggested isotonic saline associated risk half <DASH> normal saline hydration fluids containing sodium bicarbonate efficacious containing isotonic saline"
B,1.0,"short acting hypnotics zolpidem ambien zaleplon sonata preferred hypnotics elderly improved side <DASH> effect profile compared traditional hypnotics benzodiazepines"
B,1.0,"zolpidem zaleplon quick onset short duration action making cause residual sedation cognitive changes falls benzodiazepines"
B,1.0,"comparative clinical trials elderly needed determine zolpidem zaleplon truly safer benzodiazepines population"
B,1.0,"hypnotics prescribed short <DASH> term intermittent basis part comprehensive treatment plan addresses underlying causes poor sleep"
B,1.0,"cardiologists general internists perform equally identifying severe mitral regurgitation patients known mitral regurgitation"
B,1.0,"grade murmurs indicate mild moderate mitral regurgitation grade iv greater murmurs indicate severe mitral regurgitation grade iii murmurs indeterminate"
B,1.0,"areas chloroquine resistant plasmodium falciparum travelers need take atovaquone proguanil doxycycline primaquine day entering area mefloquine weeks travel"
B,1.0,"fluoxetine combined cognitive behavioral therapy cbt superior fluoxetine alone cbt alone placebo"
B,1.0,"evidence suggests despite serum uric acid <DASH> lowering effects uricosurics probenecid fail reduce gout attacks"
B,1.0,"best start nonsteroidal anti <DASH> inflammatory drugs nsaids effectively reduce heavy menstrual bleeding"
B,1.0,"coughing paroxysms posttussive vomiting absence fever typical pertussis little distinguishing causes prolonged coughing illnesses"
B,1.0,"best way evaluate low <DASH> normal b level check serum methylmalonic acid homocysteine levels"
B,1.0,"high <DASH> concentration fluoride toothpaste targeted children highest risk dental caries living areas fluoridated water"
B,1.0,"injection tendon sheath may critical successful outcome"
B,1.0,"mri sensitive ct ischemic stroke hours symptoms"
B,1.0,"empirically treating high <DASH> risk women documented infection associated increase preterm deliveries neonatal infections"
B,1.0,"asymptomatic microhematuria associated urologic disease requires intervention prevent death disability"
B,1.0,"biopsy indicated supraclavicular lymph node concomitant constitutional symptoms weight loss night sweats"
B,1.0,"evidence increased risk major bleeding result falls hospitalized patients warfarin"
B,1.0,"fatigue may signal obstructive sleep apnea"
B,1.0,"a <DASH> glucosidase inhibitors may effective"
B,1.0,"odd commonly occur solitary diagnosis"
B,1.0,"odd associated attention deficit hyperactivity disorder adhd medication responsive comorbid conditions medical treatment reduces symptoms"
B,1.0,"elevated spl due pathologic causes requires monitoring complications treatment underlying condition"
B,1.0,"cognitive therapies modestly effective reducing cronic cancer pain"
B,1.0,"small studies report benefit hypoallergenic protein hydrolysate formula maternal diet adjustment focusing low <DASH> allergen diet reduced stimulation infant"
B,1.0,"dicyclomine shown effective colic significant concerns safety manufacturer contraindicated population"
B,1.0,"herbal tea containing chamomile vervain licorice fennel balm <DASH> mint effective small rct volume necessary treatment limits usefulness"
B,1.0,"start detailed history paying particular attention medications alcohol use"
B,1.0,"antidepressant dosing luteal phase may effective tolerable"
B,1.0,"yes step helps asthmatic children may nonasthmatic children"
B,1.0,"families asthmatic children education reduce exposure secondhand smoke leads fewer medical visits"
B,1.0,"limited evidence suggests patients congestive heart failure copd reversible airflow obstruction tolerate carvedilol causes nonselective beta <DASH>  alpha adrenergic blockade"
B,1.0,"replacement sex hormones hypogonadal men prevents bone loss increases bone mineral density bmd"
B,1.0,"antihistamines antihistamine decongestant combinations guaifenesin provide greater relief placebo adults"
C,1.0,"potentially cough inducing agents tobacco products angiotensin converting enzyme ace inhibitors eliminated first"
C,1.0,"evaluation treatment postnasal drip syndrome pnds asthma gastroesophageal reflux disease gerd remedy symptoms vast majority patients"
C,1.0,"testing gonorrhea recommended patient genital chlamydia gonorrhea chlamydia sexual partner high prevalence coinfection particularly younger patients"
C,1.0,"medical conditions putting persons high risk hypomagnesemia alcoholism congestive heart failure diabetes chronic diarrhea hypokalemia hypocalcemia malnutrition"
C,1.0,"however current studies may separately evaluated minority women metabolism contraceptive steroids vulnerable oc failure"
C,1.0,"given significant consequences unintended pregnancy experts recommend conservative approach including patient education backup forms birth control"
C,1.0,"high <DASH> fiber diet may help available evidence support interventions"
C,1.0,"high <DASH> fiber diet prescribed recovery acute diverticulitis based extrapolation epidemiologic data showing association low <DASH> fiber diets diverticulosis"
C,1.0,"epidemiologic studies decreased incidence dementia statins studies significant methodological shortcomings show causal relationship"
C,1.0,"little evidence supports high <DASH> sensitivity c <DASH> reactive protein assay hs <DASH> crp screening cardiovascular disease cvd healthy adult population"
C,1.0,"significant debate populations moderate risk cardiovascular disease evidence suggesting results alter treatment recommendations"
C,1.0,"patients managed conservatively annual office follow <DASH> up imaging evaluation considered necessary specific symptom arise"
C,1.0,"antibiotics rifampin demonstrated interfere effectiveness oral contraceptives ocs"
C,1.0,"fluoroquinolone children probably carries low risk tendon rupture"
C,1.0,"practice guidelines review articles recommend acetaminophen first <DASH> line therapy"
C,1.0,"cremasteric reflex nontender testicle usually excludes testicular torsion case reports noted opposite true"
C,1.0,"insufficient evidence recommend screening women first degree relatives ovarian cancer"
C,1.0,"careful discussion risks benefits screening suggested referral specialists needed assist decision making"
C,1.0,"elisa tests based glycoprotein highly sensitive specific hsv prone false positive results cross reactivity hsv antibodies"
C,1.0,"physicians staff may experience resolution anxiety guilt improve well <DASH> being"
C,1.0,"clear evidence supports screening children just family history cardiovascular disease cvd hyperlipidemia"
C,1.0,"intake limited oz day months age"
C,1.0,"low <DASH> molecular <DASH> weight heparin initially dosed based weight nonpregnant patients adjusted goal peak antifactor xa levels"
C,1.0,"iu ml"
C,1.0,"clinical preparticipation exams ppe recommended experts required states medium better quality evidence demonstrates reduce mortality morbidity"
C,1.0,"ppes detect small percentage cardiac abnormalities athletes subsequently die suddenly"
C,1.0,"underlying asthma commonly contributes exercise induced bronchoconstriction diagnosed controlled first"
C,1.0,"limit diagnostic excisional procedures pregnancy cases suspicion invasive cancer high"
C,1.0,"diagnostic testing performed indicated positive findings history physical exam childs weight improved follow <DASH> up"
C,1.0,"evaluative management including prosthesis adjustment treatment referred pain residual limb care tried initially"
C,1.0,"patients known heart disease may develop dysrhythmias angina myocardial infarctions started full replacement doses experts recommend starting g daily population"
C,1.0,"women standard estrogen progestin hormone replacement therapy hrt regimens frequently irregular bleeding months treatment"
C,1.0,"therefore hrt usually evaluated year treatment bleeding continues"
C,1.0,"based safety profiles success general patient population ppis class considered first <DASH> line treatment gerd esophagitis elderly"
C,1.0,"ketoconazole nizoral shampoo appears safe efficacious treatment infants cradle cap"
C,1.0,"patients diagnosis hypertension evaluated history physical exam following initial studies serum potassium creatinine fasting serum glucose lipid panel hematocrit urinalysis electrocardiogram"
C,1.0,"urgent cases ultrasound useful verifying diagnoses physical exam exclude conditions neoplasm workup indicated"
C,1.0,"studies serologic antibody detection tests report higher sensitivities viral culture"
C,1.0,"false positive reports urine drug screens immunoassay rare"
C,1.0,"nonsteroidal anti <DASH> inflammatory drugs fluoroquinolones vicks inhaler frequently implicated"
C,1.0,"scant evidence exists best duration steroid therapy contact dermatitis due plants rhus"
C,1.0,"review articles recommend days treatment topical oral corticosteroids moderate severe contact dermatitis due plants"
C,1.0,"primary reason given duration weeks prevent rebound dermatitis"
C,1.0,"testing microalbuminuria optional work <DASH> up patient diabetes"
C,1.0,"ruling secondary causes amenorrhea is course step"
C,1.0,"done presumptive diagnosis hypothalamic amenorrhea advise patient increase caloric intake decrease energy expenditure promote return normal menses"
C,1.0,"diets lower fat higher soy protein higher fiber reduce serum total cholesterol low <DASH> density lipoprotein ldl triglycerides"
C,1.0,"restrictive low <DASH> fat diets lower high <DASH> density lipoprotein hdl soy protein increases hdl"
C,1.0,"average decreases ldl range mg dl depending particular intervention participants baseline characteristics"
C,1.0,"common causes categorized results tests high pth high phosphorus high creatinine renal failure"
C,1.0,"high pth low normal phosphorus normal creatinine vitamin deficiency pancreatitis"
C,1.0,"low pth high phosphorus normal creatinine inadequate parathyroid gland function hypomagnesemia"
C,1.0,"studies mathematic modeling harms associated screening functional impairment severe morbidity death outweigh benefits screening individuals having relatives ica"
C,1.0,"weak data exist suggest early ambulation reduce mortality"
C,1.0,"give empiric treatment sexual household contacts diagnosed scabies"
C,1.0,"arterial vascular disease neurological diseases prevalent male patients leg cramps"
C,1.0,"evaluation treatment reversible stroke risk factors initiated urgently completed week initial presentation"
C,1.0,"studies examine evaluation chronic cough young children"
C,1.0,"based on expert opinion investigation of chronic cough should begin with a detailed history physical examination and chest radiograph"
C,1.0,"first establish true hypercalcemia exists repeating serum calcium measuring calculating physiologically active serum calcium abnormalities blood albumin found"
C,1.0,"limited evidence suggests selective serotonin reuptake inhibitors ssris efficacious placebo"
C,1.0,"routine infant diarrhea requires lab work cultures"
C,1.0,"electroconvulsive therapy may beneficial patients refractory depressive symptoms may pregnancy"
C,1.0,"herpes simplex virus hsv type lesions papule vesicle stage benefit starting oral acyclovir"
C,1.0,"thyroid function normal time examine patient measure serum tsh months clearance levothyroxine increases euthyroid normal state"
C,1.0,"patients treated year warfarin"
C,1.0,"women unsatisfactory colposcopy suspicion invasive disease diagnostic excisional procedure recommended"
C,1.0,"statins contraindicated women pregnant breastfeeding"
C,1.0,"data evaluating statin women childbearing age limited however may cautiously adequate contraception"
C,1.0,"pravastatin may preferred based low tissue penetration properties"
C,1.0,"cholesterol lowering simvastatin mg d disrupt menstrual cycles effect luteal phase duration"
C,1.0,"electroacupuncture may stimulate onset labor"
C,1.0,"may consider offering testing asymptomatic patients hsv <DASH> positive partner patients hiv infection current sexually transmitted infection high <DASH> risk behavior"
C,1.0,"screening intracranial aneurysms cost <DASH> effective"
C,1.0,"kiddie schedule affective disorders schizophrenia ksads semi <DASH> structured interview clinical evaluation childhood mental health specialist frequently major research studies"
C,1.0,"heterophile antibody tests similar specificity cheaper sensitive children adults early days illness"
C,1.0,"percentages atypical lymphocytes total lymphocytes complete blood count cbc provide specific moderately sensitive inexpensive test"
C,1.0,"reports published regarding long <DASH> term topical tretinoin retin a therapy"
C,1.0,"short <DASH> term follow <DASH> up reports note systemic effects"
C,1.0,"amoxicillin mg kg day divided doses recommended first <DASH> line regimen"
C,1.0,"rcts directly compare immunotherapy conservative management"
C,1.0,"treatment decisions driven clinical presentation patient physician preferences practice guidelines expert opinion"
C,1.0,"difficult say treatment best studies compare treatments directly"
C,1.0,"pros cons vary"
C,1.0,"simple surgical excision associated low risk recurrence leaves visible scar"
C,1.0,"curettage shave excision cautery succeed session cryotherapy may leave smaller scar surgery"
C,1.0,"laser therapy may require multiple sessions sclerotherapy may cause visible scarring"
C,1.0,"primary care providers useful screening tool predicting drug <DASH> seeking behaviors screener opioid assessment patients pain soapp <DASH> r"
C,1.0,"experts recommend patients white <DASH> coat hypertension evaluated evidence target organ injury monitored development sustained hypertension"
C,1.0,"surgery may succeed refractory cases failed extensive conservative measures"
C,1.0,"observation generally successful serial casting surgery decreasing frequency toe <DASH> walking follow <DASH> up"
C,1.0,"patients decompensated liver disease advanced cirrhosis balance benefits statins risks"
C,1.0,"toe <DASH> brachial index may superior ankle brachial index evaluating elderly diabetic patients"
C,1.0,"antibiotics may prescribed outpatient setting severe exacerbations"
C,1.0,"dietary interventions studied raise hdl"
C,1.0,"co laser photodynamic therapy pulsed dye laser pdl er yag laser therapies may effective recalcitrant warts"
C,1.0,"children populations increased prevalence gabhs gabhs complications adding backup throat culture reduces risk missing gabhs due false negative rad results"
C,1.0,"nedocromil may allow patients severe asthma lower doses inhaled steroids"
C,1.0,"weeks start levothyroxine therapy reexamine patients measure serum thyroid stimulating hormone tsh"
C,1.0,"children screened hyperlipidemia history familial hypercholesterolemia"
C,1.0,"hoovers abductor sign indicate nonorganic paralysis"
none,1.0,"children attention deficit hyperactivity disorder adhd started methylphenidate respond favorably dose increase initial dose sufficiently reduce symptoms"
none,1.0,"titrated effective maintenance dose frequent follow <DASH> up necessary monitor side effects recurring symptoms"
none,1.0,"dose methylphenidate increased better symptom control may warranted cases"
none,1.0,"unexplained hypocalcemia usually diagnosed limited number serum tests cause obvious history neck surgery renal failure calcium corrected serum albumin creatinine phosphorus magnesium parathyroid hormone pth"
none,1.0,"standard therapies <DASH> mild topical corticosteroids moisturizers <DASH> fail treatment atopic dermatitis patients left proven remedies"
none,1.0,"introduced topical immunosuppressive treatments pimecrolimus tacrolimus offer alternative topical corticosteroids"
none,1.0,"be"
none,1.0,"spinal manipulative therapy smt component osteopathy shown variably effective treatment headaches"
none,1.0,"prophylactic treatment cervicogenic headaches acute tension headaches smt superior placebo"
none,1.0,"meta <DASH> analyses show modest short <DASH> term reduction effusion rates"
none,1.0,"however rigorous meta <DASH> analysis shows benefit"
none,1.0,"insufficient data available evaluate effectiveness magnetic resonance imaging mri diagnosing injuries medial collateral ligament mcl lateral collateral ligament lcl"
none,1.0,"optimal frequency endoscopy determined randomized trial"
none,1.0,"treatment modalities including medications chosen based effectiveness nonpregnant patients established pregnancy safety surveillance studies"
none,1.0,"symptomatic infants premature infants gestational age weeks mothers receive prophylaxis infants mothers chorioamnionitis receive full evaluation complete blood count blood culture chest x <DASH> ray lumbar puncture initial empiric antibiotic treatment ampicillin penicillin gentamycin"
none,1.0,"term infant symptomatic maternal antibiotic prophylaxis adequate opinions differ perform limited evaluation empiric treatment close observation"
none,1.0,"tools undergone preliminary testing pain centers tested different settings larger numbers patients"
none,1.0,"infantile colic defined excessive crying healthy baby distressing phenomenon little evidence support treatments offered"
none,1.0,"times hepatitis rate case series symptom based monitoring strategy"
none,1.0,"various ha products appear equally effective reducing pain"
none,1.0,"direct evidence establishes role fiber preventing recurrent diverticulitis however"
none,1.0,"evidence lacking support decongestants acute sinusitis"
none,1.0,"single risk factor predicts overweight infants risk factors overweight children"
none,1.0,"single nicotine replacement therapy effective smokers"
none,1.0,"forms nicotine replacement therapy gum transdermal patch spray inhaler lozenge equally effective increasing smoking cessation rates"
none,1.0,"evidence shows breastfeeding confers specific protection viral gastrointestinal infections"
none,1.0,"frequent pvcs associated acute myocardial infarction sudden death patients known coronary artery disease cad"
none,1.0,"linked increased mortality causes elderly patients history cad left ventricular dysfunction hypertension valvular heart disease"
none,1.0,"frequent pvcs recovery exercise stress testing associated increased mortality"
none,1.0,"insufficient evidence advocate routine folate supplementation treatment coronary artery disease cad"
none,1.0,"studies directly compared colonoscopy fecal occult blood testing fobt"
none,1.0,"ssri drug holidays may effective"
none,1.0,"patients diagnosed hcv serum liver function tests baseline hcv rna level viral load treatment decisions affected laboratory values"
none,1.0,"cochrane review smokers nicotine replacement therapy successfully quit follow <DASH> up vs smokers control group"
none,1.0,"osgood schlatter disease common cause pain tenderness tibial tuberosity active adolescents"
none,1.0,"typically self <DASH> limited condition waxes wanes takes months years resolve entirely"
none,1.0,"cesarean delivery may considered suspected fetal macrosomia estimated fetal weight efw greater women diabetes greater women diabetes"
none,1.0,"consistent evidence epidural steroid injections effective acute low back pain"
none,1.0,"considerable debate concerning treatment mild moderate essential hypertension pregnancy"
none,1.0,"evidence suggests potential risk fetal intrauterine growth restriction treatment hypertension delayed maternal blood pressure reaches hg systolic hg diastolic long mother preexisting organ damage"
none,1.0,"randomized controlled trials pharmacologic therapy acute migraine pregnant women available"
none,1.0,"sensitivity hemorrhage declines steeply days event"
none,1.0,"eligibility guidelines acute thrombolytic therapy currently based ct rule acute hemorrhagic stroke"
none,1.0,"roles dietary changes acupuncture minimally studied"
none,1.0,"randomized controlled trials rcts addressed independent role sodium restriction morbidity mortality congestive heart failure"
none,1.0,"however current guidelines recommend sodium restriction secondary prevention congestive heart failure exacerbation"
none,1.0,"different strategies available managing cervical intraepithelial neoplasia grade cin testing high <DASH> risk subtypes human papillomavirus hr <DASH> hpv dna months highest sensitivity predicting development cin cin leads lowest rate referral repeat colposcopy"
none,1.0,"hr <DASH> hpv dna result negative months patient may return routine cytology screening"
none,1.0,"hr <DASH> hpv dna result positive patient undergo repeat colposcopy"
none,1.0,"patients temporal arteritis frequently complain headaches mildly abnormal erythrocyte sedimentation rates esr findings helps diagnosis"
none,1.0,"evidence identified provides basis determining egd leads improved outcomes patients gerd"
none,1.0,"however patients gerd referred elective egd barretts esophagus symptoms year patients barretts esophagus"
none,1.0,"patients esophageal adenocarcinoma frequent severe longer duration gerd symptoms"
none,1.0,"calculated odds ratios or esophageal adenocarcinoma increased increasing frequency severity duration gerd symptoms independently combination"
none,1.0,"time data compare pimecrolimus mild corticosteroids"
none,1.0,"mri high sensitivity specificity detection cancer infection particularly specific evaluating lumbar radiculopathy"
none,1.0,"poor specificity lead finding clinically irrelevant abnormalities"
none,1.0,"no"
none,1.0,"adjuvant therapies mirror box therapy acupuncture calcitonin n <DASH> methyl d <DASH> aspartate receptor antagonists rigorously investigated alleviating plp considered patients failed treatments"
none,1.0,"ideal dose aspirin prophylaxis unknown appears low doses mg d effective higher doses"
none,1.0,"evidence exists treating isolated high triglyceride levels absence risk factors prevents coronary events"
none,1.0,"elevated triglycerides studies correlates coronary events association weakens controlled factors diabetes high <DASH> density lipoprotein hdl low <DASH> density lipoprotein ldl cholesterol body mass index cardiac risk factors"
none,1.0,"suggested interventions extensively tested antiviral chemoprophylaxis influenza outbreak nursing home oral hygiene programs nursing residents"
none,1.0,"evidence insufficient suggest improved outcomes therapy women gestational diabetes"
none,1.0,"standard recommendations typically recommend tight control population well"
none,1.0,"best approach studied alternatives manage patient treatment resistant depression clear evidence"
none,1.0,"options reviewed success rate"
none,1.0,"nedocromil tilade effective treatment mild persistent asthma"
none,1.0,"shown effective severe forms asthma children adults"
none,1.0,"studies looked specifically exacerbation rates multiple clinical biologic outcomes symptom scores quality life measures bronchodilator use forced expiratory flow second fev peak expiratory flow rate pefr improved nedocromil compared placebo"
none,1.0,"research needed address long <DASH> term efficacy fluoxetine treatment"
none,1.0,"a yes lithium triiodothyronine t atypical antipsychotics effective adjuncts"
none,1.0,"limited evidence expert opinion regarding breastfed infants particularly regard preservation breastfeeding therapy"
none,1.0,"magnetic resonance imaging mri may equally accurate diagnosing acute hemorrhagic stroke completed minutes presentation patients symptoms began fewer hours earlier"
none,1.0,"evidence clearly supports practice increased fetal surveillance pregnancies women well <DASH> controlled ie fasting blood sugar mg dl class a gestational diabetes"
none,1.0,"results contradictory regarding ace inhibition delays onset diabetic microalbuminuria"
none,1.0,"bedding accessories duvets pillows may increase infants risk sids"
none,1.0,"time <DASH> limited hrt control intolerable menopausal symptoms prevent risk fractures newly menopausal women"
none,1.0,"however hrt achieves maximum efficacy years risk adverse outcomes increases time progresses"
none,1.0,"women considering hrt particularly higher risk vascular disease breast cancer informed potential risks"
none,1.0,"first <DASH> line treatments transcutaneous electrical nerve stimulation tens reduce plp"
none,1.0,"selective serotonin reuptake inhibitors ssris may moderately improve fibromyalgia related symptoms"
none,1.0,"studies testing effectiveness antibiotics preventing pneumonia population including persons predisposing conditions influenza"
none,1.0,"yes"
none,1.0,"routine vaccination meningococcal conjugate vaccine mcv menactra indicated adolescents entering high school college freshmen living dormitories"
none,1.0,"duct tape may equivalent cryotherapy"
none,1.0,"screening detect subclinical hypothyroidism"
none,1.0,"studies evaluating treatment subclinical hypothyroidism women aged years offer mix potential benefits harms long <DASH> term outcome information"
none,1.0,"studies address asymptomatic women aged"
none,1.0,"oral rehydrating solution adequate fluid replacement diarrhea associated mild moderate dehydration followed prompt refeeding age <DASH> appropriate diet"
none,1.0,"generally no"
none,1.0,"no cox inhibitors class worsen renal function renal disease"
none,1.0,"little evidence exists regarding primary prevention patients incidental finding apl"
none,1.0,"unusually healthy individuals may choose continue screening age"
none,1.0,"case series tertiary <DASH> care centers report toddlers diarrhea cows milk sensitivity enteropathy infection celiac disease idiopathic chronic diarrhea common etiologies pediatric population"
none,1.0,"patients severe local symptoms receive evaluation possible surgical management"
none,1.0,"unclear disease modifying antirheumatic agents dmards first <DASH> line therapy nonrheumatoid rheumatologic diseases effective question studied"
none,1.0,"studies required clarify effects glucosamine patients poorly controlled diabetes glucose intolerance"
none,1.0,"mid <DASH> sized reticular veins spider telangiectasias options available including sclerotherapy laser ablation thermal ablation"
none,1.0,"however randomized trials compared relative effectiveness treatments"
none,1.0,"single well <DASH> validated screening instrument clinical diagnosis bipolar disorder children exists"
