@relation 'training set'

@attribute 64c numeric
@attribute BOL_tell numeric
@attribute COMMA numeric
@attribute CONTAINS_NON_STOP numeric
@attribute PERIOD numeric
@attribute QUESTION_MARK numeric
@attribute appli numeric
@attribute appli_machin numeric
@attribute bake numeric
@attribute bake_good numeric
@attribute blue numeric
@attribute bread numeric
@attribute bu numeric
@attribute color numeric
@attribute cours numeric
@attribute earli numeric
@attribute earlier numeric
@attribute eat numeric
@attribute eat_wheat numeric
@attribute explain numeric
@attribute explain_earlier numeric
@attribute famili numeric
@attribute famili_live numeric
@attribute favorit numeric
@attribute favorit_color numeric
@attribute good numeric
@attribute learn numeric
@attribute learn_cours numeric
@attribute live numeric
@attribute machin numeric
@attribute machin_learn numeric
@attribute morn numeric
@attribute prefer numeric
@attribute sandwich numeric
@attribute take numeric
@attribute tell numeric
@attribute wheat numeric
@attribute wheat_bread numeric
@attribute line_length numeric
@attribute CLASS {Question,Statement}

@data
0,1,0,1,1,0,0,0,0,0,0,0,0,1,0,0,0,0,0,0,0,0,0,1,1,0,0,0,0,0,0,0,0,0,0,1,0,0,0.230769,Question
0,0,0,1,1,0,0,0,0,0,1,0,0,1,0,0,0,0,0,0,0,0,0,1,1,0,0,0,0,0,0,0,0,0,0,0,0,0,0.076923,Statement
0,0,0,1,0,1,0,0,0,0,0,0,0,0,0,0,0,0,0,0,0,0,0,0,0,0,0,0,1,0,0,0,0,0,0,0,0,0,0,Question
0,0,0,1,1,0,0,0,0,0,0,0,0,0,0,0,0,0,0,0,0,1,1,0,0,0,0,0,1,0,0,0,0,0,0,0,0,0,0.153846,Statement
0,0,0,1,0,0,0,0,1,1,0,0,0,0,0,0,0,0,0,0,0,0,0,0,0,1,0,0,0,0,0,0,1,0,0,0,0,0,0.230769,Question
0,0,0,1,1,0,0,0,0,0,0,1,0,0,0,0,0,1,1,0,0,0,0,0,0,0,0,0,0,0,0,0,1,0,0,0,1,1,0.153846,Statement
0,0,0,1,0,1,0,0,0,0,0,0,0,0,1,0,0,0,0,0,0,0,0,0,0,0,0,0,0,0,0,0,0,0,1,0,0,0,0.076923,Question
0,0,0,1,1,0,1,1,0,0,0,0,0,0,1,0,0,0,0,0,0,0,0,0,0,0,1,1,0,1,1,0,0,0,1,0,0,0,0.307692,Statement
0,1,0,1,1,0,0,0,0,0,0,0,0,0,0,0,0,0,0,0,0,0,0,0,0,0,0,0,0,0,0,1,0,0,0,1,0,0,0.384615,Question
0,0,0,1,1,0,0,0,0,0,0,0,0,0,0,1,0,0,0,0,0,0,0,0,0,0,0,0,0,0,0,0,0,0,0,0,0,0,0,Statement
1,0,1,1,1,0,0,0,0,0,0,0,1,0,0,0,1,0,0,1,1,0,0,0,0,0,0,0,0,0,0,0,0,0,1,1,0,0,1,Question
0,0,0,1,0,1,0,0,0,0,0,0,1,0,0,0,0,0,0,0,0,0,0,0,0,0,0,0,0,0,0,0,0,0,1,0,0,0,0.076923,Question
0,1,0,1,1,0,0,0,0,0,0,0,1,0,0,0,0,0,0,0,0,0,0,0,0,0,0,0,0,0,0,0,0,0,1,1,0,0,0.230769,Question
0,0,0,1,0,0,0,0,0,0,0,0,0,0,0,0,0,1,0,0,0,0,0,0,0,0,0,0,0,0,0,0,0,1,0,0,0,0,0,Question
